Add experimental conditions to multi-well plates | Guorui Zhong
…
Group <- read_plates("plater2.csv",
    plate_names = "ZG22006",
    well_ids_column = "Well.ID"
)
Group

# A tibble: 32 × 4
   Plate   Well.ID Treatment Group  
   <chr>   <chr>   <chr>     <chr>  
 1 ZG22006 C03     DMSO      WT     
 2 ZG22006 C04     Eto_1     WT     
 3 ZG22006 C05     Eto_10    WT     
 4 ZG22006 C06     Eto_100   WT     
 5 ZG22006 C07     DMSO      Variant
 6 ZG22006 C08     Eto_1     Variant
 7 ZG22006 C09     Eto_10    Variant
 8 ZG22006 C10     Eto_100   Variant
 9 ZG22006 D03     DMSO      WT     
10 ZG22006 D04     Eto_1     WT     
# … with 22 more rows
…
