Learning general workflow for RNAseq data analysis
…
mydata_df <- mutate(log2_cpm_filtered_norm_df,
                    healthy.AVG = (HS01 + HS02 + HS03 + HS04 + HS05)/5, 
                    disease.AVG = (CL08 + CL10 + CL11 + CL12 + CL13)/5,
                    #now make columns comparing each of the averages above that you're interested in
                    LogFC = (disease.AVG - healthy.AVG)) %>% 
  mutate_if(is.numeric, round, 2)

### sort data
mydata_sort <- mydata_df %>%
  dplyr::arrange(desc(LogFC)) %>% 
  dplyr::select(geneID, LogFC)
mydata_sort
## # A tibble: 15,765 × 2
##    geneID    LogFC
##    <chr>     <dbl>
##  1 IGLC3     10.6 
##  2 MMP1      10.4 
##  3 IGKV1-5   10.2 
##  4 IGLV3-1    9.96
##  5 IGLV3-19   9.9 
##  6 IGLC1      9.88
##  7 IGKV1D-39  9.87
##  8 IGLL5      9.85
##  9 IGKV1D-33  9.83
## 10 IGLV2-8    9.65
## # ℹ 15,755 more rows
…
### get bayesian stats for the linear model fit
ebFit <- eBayes(fits)
#write.fit(ebFit, file="lmfit_results.txt")

### top table to view DEGs
TopHits <- topTable(ebFit, adjust ="BH", coef=1, number=40000, sort.by="logFC")

### convert to a tibble
TopHits_df <- TopHits %>%
  as_tibble(rownames = "geneID")

TopHits_df
## # A tibble: 15,765 × 7
##    geneID    logFC AveExpr     t      P.Value  adj.P.Val     B
##    <chr>     <dbl>   <dbl> <dbl>        <dbl>      <dbl> <dbl>
##  1 MMP1      10.8    6.65  13.4  0.0000000182 0.00000123 10.0 
##  2 IGLC3     10.3    3.49   7.50 0.00000815   0.0000778   4.06
##  3 IGKV1D-33 10.2    1.12   9.29 0.000000913  0.0000160   6.11
##  4 IGKV2D-28 10.1    0.898  9.50 0.000000723  0.0000137   6.32
##  5 IGLV3-25  10.0    0.242  6.89 0.0000186    0.000147    3.27
##  6 IGLV3-1   10.0    1.75  11.8  0.0000000715 0.00000281  8.36
##  7 IGKV1-5    9.93   3.36  13.8  0.0000000124 0.00000101 10.0 
##  8 IGHV1-3    9.89   0.447  6.24 0.0000468    0.000302    2.37
##  9 IGLV3-19   9.84   2.18   6.93 0.0000175    0.000140    3.33
## 10 IGHV3-21   9.80   1.42   9.00 0.00000128   0.0000200   5.80
## # ℹ 15,755 more rows
…
