Guorui Zhong - General workflow for Bulk RNAseq data analysis with R
…
### make sure path is correct
all(file.exists(path))
## [1] TRUE

Get organsim specific annotations

tx <- transcripts(
    EnsDb.Hsapiens.v86, columns = c("tx_id", "gene_name")
) |>
    as_tibble() |> 
    ### need to change first column name to 'target_id'
    rename(target_id = tx_id)
tx
## # A tibble: 216,741 × 7
##    seqnames start   end width strand target_id       gene_name
##    <fct>    <int> <int> <int> <fct>  <chr>           <chr>    
##  1 1        11869 14409  2541 +      ENST00000456328 DDX11L1  
##  2 1        12010 13670  1661 +      ENST00000450305 DDX11L1  
##  3 1        14404 29570 15167 -      ENST00000488147 WASH7P   
##  4 1        17369 17436    68 -      ENST00000619216 MIR6859-1
##  5 1        29554 31097  1544 +      ENST00000473358 MIR1302-2
##  6 1        30267 31109   843 +      ENST00000469289 MIR1302-2
##  7 1        30366 30503   138 +      ENST00000607096 MIR1302-2
##  8 1        34554 36081  1528 -      ENST00000417324 FAM138A  
##  9 1        35245 36073   829 -      ENST00000461467 FAM138A  
## 10 1        52473 53312   840 +      ENST00000606857 OR4G4P   
## # ℹ 216,731 more rows
…
# make columns comparing each of the averages above that you're interested in
mydata_df <- mutate(
  log2_cpm_filtered_norm_df,
  healthy.AVG = (HS01 + HS02 + HS03 + HS04 + HS05)/5, 
  disease.AVG = (CL08 + CL10 + CL11 + CL12 + CL13)/5,
  LogFC = (disease.AVG - healthy.AVG)
  ) |> 
  mutate_if(is.numeric, round, 2)

### sort data
mydata_sort <- mydata_df |>
  arrange(desc(LogFC)) |> 
  select(geneID, LogFC)
mydata_sort
## # A tibble: 15,765 × 2
##    geneID    LogFC
##    <chr>     <dbl>
##  1 IGLC3     10.6 
##  2 MMP1      10.4 
##  3 IGKV1-5   10.2 
##  4 IGLV3-1    9.96
##  5 IGLV3-19   9.9 
##  6 IGLC1      9.88
##  7 IGKV1D-39  9.87
##  8 IGLL5      9.85
##  9 IGKV1D-33  9.83
## 10 IGLV2-8    9.65
## # ℹ 15,755 more rows
…
### get bayesian stats for the linear model fit
ebFit <- eBayes(fits)

#write.fit(ebFit, file="lmfit_results.txt")

### top table to view DEGs
TopHits <- topTable(ebFit, adjust ="BH", coef=1, number=40000, sort.by="logFC")

### convert to a tibble
TopHits_df <- TopHits |>
  as_tibble(rownames = "geneID")

TopHits_df
## # A tibble: 15,765 × 7
##    geneID    logFC AveExpr     t      P.Value  adj.P.Val     B
##    <chr>     <dbl>   <dbl> <dbl>        <dbl>      <dbl> <dbl>
##  1 MMP1      10.8    6.65  13.4  0.0000000182 0.00000123 10.0 
##  2 IGLC3     10.3    3.49   7.50 0.00000815   0.0000778   4.06
##  3 IGKV1D-33 10.2    1.12   9.29 0.000000913  0.0000160   6.11
##  4 IGKV2D-28 10.1    0.898  9.50 0.000000723  0.0000137   6.32
##  5 IGLV3-25  10.0    0.242  6.89 0.0000186    0.000147    3.27
##  6 IGLV3-1   10.0    1.75  11.8  0.0000000715 0.00000281  8.36
##  7 IGKV1-5    9.93   3.36  13.8  0.0000000124 0.00000101 10.0 
##  8 IGHV1-3    9.89   0.447  6.24 0.0000468    0.000302    2.37
##  9 IGLV3-19   9.84   2.18   6.93 0.0000175    0.000140    3.33
## 10 IGHV3-21   9.80   1.42   9.00 0.00000128   0.0000200   5.80
## # ℹ 15,755 more rows
…
### Take a look at the categories and subcategories of signatures available to you
hs_gsea |> 
  distinct(gs_cat, gs_subcat) |> 
  arrange(gs_cat, gs_subcat)
## # A tibble: 23 × 2
##    gs_cat gs_subcat        
##    <chr>  <chr>            
##  1 C1     ""               
##  2 C2     "CGP"            
##  3 C2     "CP"             
##  4 C2     "CP:BIOCARTA"    
##  5 C2     "CP:KEGG"        
##  6 C2     "CP:PID"         
##  7 C2     "CP:REACTOME"    
##  8 C2     "CP:WIKIPATHWAYS"
##  9 C3     "MIR:MIRDB"      
## 10 C3     "MIR:MIR_Legacy" 
## # ℹ 13 more rows
…
