Scatter plot with ggplot2
…
### subset data
df <- gapminder %>%
    filter(year == "2007") %>%
    mutate(
        pop2 = pop + 1,
        continent = case_when(
            continent == "Oceania" ~ "Asia",
            TRUE ~ as.character(continent)
        ) %>% as.factor() %>%
            fct_relevel("Asia", "Americas", "Europe", "Africa")
    )
df
## # A tibble: 142 × 7
##    country     continent  year lifeExp       pop gdpPercap      pop2
##    <fct>       <fct>     <int>   <dbl>     <int>     <dbl>     <dbl>
##  1 Afghanistan Asia       2007    43.8  31889923      975.  31889924
##  2 Albania     Europe     2007    76.4   3600523     5937.   3600524
##  3 Algeria     Africa     2007    72.3  33333216     6223.  33333217
##  4 Angola      Africa     2007    42.7  12420476     4797.  12420477
##  5 Argentina   Americas   2007    75.3  40301927    12779.  40301928
##  6 Australia   Asia       2007    81.2  20434176    34435.  20434177
##  7 Austria     Europe     2007    79.8   8199783    36126.   8199784
##  8 Bahrain     Asia       2007    75.6    708573    29796.    708574
##  9 Bangladesh  Asia       2007    64.1 150448339     1391. 150448340
## 10 Belgium     Europe     2007    79.4  10392226    33693.  10392227
## # ℹ 132 more rows
…
