Add errorbar and p-value on barplot with ggsignif
…
library(ggsignif)
library(ggh4x)
dfb <- read.csv("221001_barplot.csv", header = FALSE)
dfb
##                    V1   V2   V3   V4   V5   V6   V7 V8
## 1             Control 0.06 0.00 0.39 0.22 0.22 0.36 NA
## 2                  F5 0.99 1.00 0.95 0.97 0.97   NA NA
## 3 pAtUbi3:CDS-Rps11-1 1.00 0.67 0.94 1.00 1.00   NA NA
## 4 pAtUbi3:CDS-Rps11-2 0.94 1.00 0.94 0.94 1.00 1.00  1
dfb.1 <- dfb %>%
    pivot_longer(!V1) %>%
    select(V1, value) %>%
    na.omit()
dfb.1
## # A tibble: 23 × 2
##    V1      value
##    <chr>   <dbl>
##  1 Control  0.06
##  2 Control  0   
##  3 Control  0.39
##  4 Control  0.22
##  5 Control  0.22
##  6 Control  0.36
##  7 F5       0.99
##  8 F5       1   
##  9 F5       0.95
## 10 F5       0.97
## # ℹ 13 more rows
…
